%!PS-Adobe-3.0 EPSF-3.0
%%Creator: 0.46
%%Pages: 1
%%Orientation: Portrait
%%BoundingBox: 25 20 211 798
%%HiResBoundingBox: 25.15 20.239746 210.55357 797.36475
%%EndComments
%%Page: 1 1
0 842 translate
0.8 -0.8 scale
0 0 0 setrgbcolor
[] 0 setdash
1 setlinewidth
0 setlinejoin
0 setlinecap
gsave [1 0 0 1 0 0] concat
gsave
0.71764708 0.90980393 0.67843139 setrgbcolor
newpath
31.4375 55.65625 moveto
31.4375 1027.0625 lineto
109.41518 1027.0625 lineto
1.7559999 760.15001 22.010845 264.08347 256.44197 61.433036 curveto
259.50386 58.786231 260.93429 58.991198 263.19196 55.65625 curveto
31.4375 55.65625 lineto
closepath
fill
grestore
grestore
showpage
%%EOF
