Copyright 1986-2019 Xilinx, Inc. All Rights Reserved.
------------------------------------------------------------------------------------
| Tool Version : Vivado v.2019.2 (lin64) Build 2708876 Wed Nov  6 21:39:14 MST 2019
| Date         : Sat Apr  4 12:49:24 2020
| Host         : dpdebian running 64-bit Debian GNU/Linux 10 (buster)
| Command      : report_control_sets -verbose -file system_control_sets_placed.rpt
| Design       : system
| Device       : xc7z020
------------------------------------------------------------------------------------

Control Set Information

Table of Contents
-----------------
1. Summary
2. Histogram
3. Flip-Flop Distribution
4. Detailed Control Set Information

1. Summary
----------

+----------------------------------------------------------+-------+
|                          Status                          | Count |
+----------------------------------------------------------+-------+
| Total control sets                                       |    22 |
|    Minimum number of control sets                        |    22 |
|    Addition due to synthesis replication                 |     0 |
|    Addition due to physical synthesis replication        |     0 |
| Unused register locations in slices containing registers |    47 |
+----------------------------------------------------------+-------+
* Control sets can be merged at opt_design using control_set_merge or merge_equivalent_drivers
** Run report_qor_suggestions for automated merging and remapping suggestions


2. Histogram
------------

+--------------------+-------+
|       Fanout       | Count |
+--------------------+-------+
| Total control sets |    22 |
| >= 0 to < 4        |     0 |
| >= 4 to < 6        |     3 |
| >= 6 to < 8        |     2 |
| >= 8 to < 10       |     2 |
| >= 10 to < 12      |     0 |
| >= 12 to < 14      |     1 |
| >= 14 to < 16      |     0 |
| >= 16              |    14 |
+--------------------+-------+
* Control sets can be remapped at either synth_design or opt_design


3. Flip-Flop Distribution
-------------------------

+--------------+-----------------------+------------------------+-----------------+--------------+
| Clock Enable | Synchronous Set/Reset | Asynchronous Set/Reset | Total Registers | Total Slices |
+--------------+-----------------------+------------------------+-----------------+--------------+
| No           | No                    | No                     |              69 |           46 |
| No           | No                    | Yes                    |               0 |            0 |
| No           | Yes                   | No                     |             100 |           37 |
| Yes          | No                    | No                     |             228 |           92 |
| Yes          | No                    | Yes                    |               0 |            0 |
| Yes          | Yes                   | No                     |             188 |           59 |
+--------------+-----------------------+------------------------+-----------------+--------------+


4. Detailed Control Set Information
-----------------------------------

+----------------+---------------------------------------------------+---------------------------------------+------------------+----------------+
|  Clock Signal  |                   Enable Signal                   |            Set/Reset Signal           | Slice Load Count | Bel Load Count |
+----------------+---------------------------------------------------+---------------------------------------+------------------+----------------+
|  clk_IBUF_BUFG | picorv32_core/instr_jal_i_1_n_0                   | picorv32_core/is_sb_sh_sw_i_1_n_0     |                2 |              4 |
|  clk_IBUF_BUFG | picorv32_core/mem_addr[31]_i_1_n_0                | picorv32_core/mem_wstrb[3]_i_1_n_0    |                1 |              4 |
|  clk_IBUF_BUFG | picorv32_core/latched_rd[4]_i_2_n_0               | picorv32_core/latched_rd[4]_i_1_n_0   |                1 |              5 |
|  clk_IBUF_BUFG |                                                   | picorv32_core/reg_out[14]_i_1_n_0     |                4 |              7 |
|  clk_IBUF_BUFG | picorv32_core/cpu_state[7]_i_2_n_0                | picorv32_core/cpu_state[7]_i_1_n_0    |                3 |              7 |
|  clk_IBUF_BUFG | picorv32_core/is_lui_auipc_jal_jalr_addi_add_sub0 | picorv32_core/decoded_imm[19]_i_1_n_0 |                3 |              8 |
|  clk_IBUF_BUFG | picorv32_core/E[0]                                |                                       |                4 |              8 |
|  clk_IBUF_BUFG | picorv32_core/is_lui_auipc_jal_jalr_addi_add_sub0 | picorv32_core/decoded_imm[31]_i_1_n_0 |                2 |             12 |
|  clk_IBUF_BUFG |                                                   | picorv32_core/reg_out[31]_i_1_n_0     |               11 |             17 |
|  clk_IBUF_BUFG | picorv32_core/is_lui_auipc_jal_jalr_addi_add_sub0 | picorv32_core/instr_and_i_1_n_0       |                6 |             22 |
|  clk_IBUF_BUFG | picorv32_core/mem_rdata_q[31]_i_1_n_0             |                                       |                5 |             25 |
|  clk_IBUF_BUFG | picorv32_core/is_lui_auipc_jal_jalr_addi_add_sub0 |                                       |               13 |             30 |
|  clk_IBUF_BUFG | picorv32_core/mem_addr[31]_i_1_n_0                |                                       |               15 |             30 |
|  clk_IBUF_BUFG | picorv32_core/reg_op1[31]_i_1_n_0                 |                                       |               21 |             32 |
|  clk_IBUF_BUFG | picorv32_core/mem_wdata[31]_i_1_n_0               |                                       |                9 |             32 |
|  clk_IBUF_BUFG | picorv32_core/reg_op2[31]_i_1_n_0                 |                                       |               14 |             32 |
|  clk_IBUF_BUFG | picorv32_core/instr_jal_i_1_n_0                   |                                       |               11 |             39 |
|  clk_IBUF_BUFG | picorv32_core/reg_next_pc                         | picorv32_core/instr_and_i_1_n_0       |               25 |             62 |
|  clk_IBUF_BUFG | picorv32_core/count_instr                         | picorv32_core/instr_and_i_1_n_0       |               16 |             64 |
|  clk_IBUF_BUFG |                                                   |                                       |               46 |             69 |
|  clk_IBUF_BUFG |                                                   | picorv32_core/instr_and_i_1_n_0       |               22 |             76 |
|  clk_IBUF_BUFG | picorv32_core/cpuregs_reg_r1_0_31_0_5_i_1_n_0     |                                       |               12 |             96 |
+----------------+---------------------------------------------------+---------------------------------------+------------------+----------------+


