\relax 
\providecommand\hyper@newdestlabel[2]{}
\providecommand*{\memsetcounter}[2]{}
\providecommand\HyperFirstAtBeginDocument{\AtBeginDocument}
\HyperFirstAtBeginDocument{\ifx\hyper@anchor\@undefined
\global\let\oldcontentsline\contentsline
\gdef\contentsline#1#2#3#4{\oldcontentsline{#1}{#2}{#3}}
\global\let\oldnewlabel\newlabel
\gdef\newlabel#1#2{\newlabelxx{#1}#2}
\gdef\newlabelxx#1#2#3#4#5#6{\oldnewlabel{#1}{{#2}{#3}}}
\AtEndDocument{\ifx\hyper@anchor\@undefined
\let\contentsline\oldcontentsline
\let\newlabel\oldnewlabel
\fi}
\fi}
\global\let\hyper@last\relax 
\gdef\HyperFirstAtBeginDocument#1{#1}
\providecommand*\HyPL@Entry[1]{}
\HyPL@Entry{0<</S/r>>}
\@writefile{toc}{\nobreakspace  {}\hfill \textbf  {Pag.}\par }
\@writefile{toc}{\contentsline {chapter}{Contents}{ii}{section*.1}\protected@file@percent }
\@writefile{Lista de Figuras}{\nobreakspace  {}\hfill \textbf  {Pag.}\par }
\@writefile{toc}{\contentsline {chapter}{List of Figures}{iv}{section*.2}\protected@file@percent }
\@writefile{Lista de Tablas}{\nobreakspace  {}\hfill \textbf  {Pag.}\par }
\@writefile{toc}{\contentsline {chapter}{List of Tables}{vi}{section*.3}\protected@file@percent }
\HyPL@Entry{6<</S/D>>}
\@writefile{toc}{\contentsline {section}{INTRODUCTION}{1}{section*.4}\protected@file@percent }
\@writefile{lof}{\addvspace {10pt}}
\@writefile{lot}{\addvspace {10pt}}
\@writefile{toc}{\contentsline {chapter}{\chapternumberline {1}Tools Installation}{1}{chapter.1}\protected@file@percent }
\newlabel{ch:01_installation}{{\M@TitleReference {1}{Tools Installation}}{1}{Tools Installation}{chapter.1}{}}
\@writefile{toc}{\contentsline {section}{\numberline {1}Installing Vitis}{1}{section.1.1}\protected@file@percent }
\@writefile{toc}{\contentsline {subsection}{\numberline {1.1}Supported Operating System}{1}{subsection.1.1.1}\protected@file@percent }
\@writefile{toc}{\contentsline {subsection}{\numberline {1.2}Download and Installation}{1}{subsection.1.1.2}\protected@file@percent }
\@writefile{lof}{\contentsline {figure}{\numberline {1.1}{\ignorespaces Insert Credentials to continue.\relax }}{3}{figure.caption.5}\protected@file@percent }
\providecommand*\caption@xref[2]{\@setref\relax\@undefined{#1}}
\newlabel{fig:00_cred}{{\M@TitleReference {1.1}{Insert Credentials to continue.\relax }}{3}{Insert Credentials to continue.\relax }{figure.caption.5}{}}
\@writefile{lof}{\contentsline {figure}{\numberline {1.2}{\ignorespaces Read and accept.\relax }}{3}{figure.caption.6}\protected@file@percent }
\newlabel{fig:00_acce}{{\M@TitleReference {1.2}{Read and accept.\relax }}{3}{Read and accept.\relax }{figure.caption.6}{}}
\@writefile{lof}{\contentsline {figure}{\numberline {1.3}{\ignorespaces Select the software edition.\relax }}{4}{figure.caption.7}\protected@file@percent }
\newlabel{fig:00_sele}{{\M@TitleReference {1.3}{Select the software edition.\relax }}{4}{Select the software edition.\relax }{figure.caption.7}{}}
\@writefile{lof}{\contentsline {figure}{\numberline {1.4}{\ignorespaces Choose tools\relax }}{4}{figure.caption.8}\protected@file@percent }
\newlabel{fig:00_choo}{{\M@TitleReference {1.4}{Choose tools\relax }}{4}{Choose tools\relax }{figure.caption.8}{}}
\@writefile{lof}{\contentsline {figure}{\numberline {1.5}{\ignorespaces Select directory\relax }}{5}{figure.caption.9}\protected@file@percent }
\newlabel{fig:00_direc}{{\M@TitleReference {1.5}{Select directory\relax }}{5}{Select directory\relax }{figure.caption.9}{}}
\@writefile{lof}{\contentsline {figure}{\numberline {1.6}{\ignorespaces Installation Sumary\relax }}{5}{figure.caption.10}\protected@file@percent }
\newlabel{fig:00_check}{{\M@TitleReference {1.6}{Installation Sumary\relax }}{5}{Installation Sumary\relax }{figure.caption.10}{}}
\@writefile{lof}{\contentsline {figure}{\numberline {1.7}{\ignorespaces Installation\relax }}{6}{figure.caption.11}\protected@file@percent }
\newlabel{fig:00_wait}{{\M@TitleReference {1.7}{Installation\relax }}{6}{Installation\relax }{figure.caption.11}{}}
\@writefile{lof}{\contentsline {figure}{\numberline {1.8}{\ignorespaces License Manager\relax }}{6}{figure.caption.12}\protected@file@percent }
\newlabel{fig:00_license}{{\M@TitleReference {1.8}{License Manager\relax }}{6}{License Manager\relax }{figure.caption.12}{}}
\@writefile{toc}{\contentsline {subsection}{\numberline {1.3}Installing Digilent drivers}{7}{subsection.1.1.3}\protected@file@percent }
\@writefile{toc}{\contentsline {subsection}{\numberline {1.4}Launching Vivado}{7}{subsection.1.1.4}\protected@file@percent }
\@writefile{toc}{\contentsline {subsection}{\numberline {1.5}Launching Vitis}{7}{subsection.1.1.5}\protected@file@percent }
\@writefile{toc}{\contentsline {section}{\numberline {2}Installing RISCV toolchain}{7}{section.1.2}\protected@file@percent }
\@writefile{toc}{\contentsline {section}{\numberline {3}Installing Serial Communication tools}{7}{section.1.3}\protected@file@percent }
\@writefile{toc}{\contentsline {section}{\numberline {4}Installing Configuring tools}{7}{section.1.4}\protected@file@percent }
\@writefile{lof}{\addvspace {10pt}}
\@writefile{lot}{\addvspace {10pt}}
\@writefile{toc}{\contentsline {chapter}{\chapternumberline {2}Lab 01: The ARM processor}{8}{chapter.2}\protected@file@percent }
\newlabel{ch:02_arm}{{\M@TitleReference {2}{Lab 01: The ARM processor}}{8}{Lab 01: The ARM processor}{chapter.2}{}}
\@writefile{toc}{\contentsline {section}{\numberline {1}Introduction}{8}{section.2.1}\protected@file@percent }
\@writefile{toc}{\contentsline {subsection}{\numberline {1.1}Devices and Programs}{8}{subsection.2.1.1}\protected@file@percent }
\@writefile{toc}{\contentsline {subsection}{\numberline {1.2}Summarized Steps}{9}{subsection.2.1.2}\protected@file@percent }
\@writefile{toc}{\contentsline {section}{\numberline {2}Building a Zynq-7000 SoC Processor Design}{9}{section.2.2}\protected@file@percent }
\@writefile{lof}{\contentsline {figure}{\numberline {2.1}{\ignorespaces Default Part.\relax }}{10}{figure.caption.13}\protected@file@percent }
\newlabel{fig:01_part}{{\M@TitleReference {2.1}{Default Part.\relax }}{10}{Default Part.\relax }{figure.caption.13}{}}
\@writefile{lof}{\contentsline {figure}{\numberline {2.2}{\ignorespaces Create block design.\relax }}{10}{figure.caption.14}\protected@file@percent }
\newlabel{fig:01_bd}{{\M@TitleReference {2.2}{Create block design.\relax }}{10}{Create block design.\relax }{figure.caption.14}{}}
\@writefile{lof}{\contentsline {figure}{\numberline {2.3}{\ignorespaces Add IP\relax }}{11}{figure.caption.15}\protected@file@percent }
\newlabel{fig:01_IP}{{\M@TitleReference {2.3}{Add IP\relax }}{11}{Add IP\relax }{figure.caption.15}{}}
\@writefile{lof}{\contentsline {figure}{\numberline {2.4}{\ignorespaces Zynq Processing System.\relax }}{11}{figure.caption.16}\protected@file@percent }
\newlabel{fig:01_zynq_ip}{{\M@TitleReference {2.4}{Zynq Processing System.\relax }}{11}{Zynq Processing System.\relax }{figure.caption.16}{}}
\@writefile{lof}{\contentsline {figure}{\numberline {2.5}{\ignorespaces PS-PL configuration.\relax }}{12}{figure.caption.17}\protected@file@percent }
\newlabel{fig:01_pspl}{{\M@TitleReference {2.5}{PS-PL configuration.\relax }}{12}{PS-PL configuration.\relax }{figure.caption.17}{}}
\@writefile{lof}{\contentsline {figure}{\numberline {2.6}{\ignorespaces MIO configuration.\relax }}{13}{figure.caption.18}\protected@file@percent }
\newlabel{fig:01_MIO}{{\M@TitleReference {2.6}{MIO configuration.\relax }}{13}{MIO configuration.\relax }{figure.caption.18}{}}
\@writefile{lof}{\contentsline {figure}{\numberline {2.7}{\ignorespaces Push buttons configuration.\relax }}{14}{figure.caption.19}\protected@file@percent }
\newlabel{fig:01_push}{{\M@TitleReference {2.7}{Push buttons configuration.\relax }}{14}{Push buttons configuration.\relax }{figure.caption.19}{}}
\@writefile{lof}{\contentsline {figure}{\numberline {2.8}{\ignorespaces Clock configuration.\relax }}{15}{figure.caption.20}\protected@file@percent }
\newlabel{fig:01_clock}{{\M@TitleReference {2.8}{Clock configuration.\relax }}{15}{Clock configuration.\relax }{figure.caption.20}{}}
\@writefile{lof}{\contentsline {figure}{\numberline {2.9}{\ignorespaces DDR Memory configuration.\relax }}{16}{figure.caption.21}\protected@file@percent }
\newlabel{fig:01_memory}{{\M@TitleReference {2.9}{DDR Memory configuration.\relax }}{16}{DDR Memory configuration.\relax }{figure.caption.21}{}}
\@writefile{lof}{\contentsline {figure}{\numberline {2.10}{\ignorespaces Create HDL wrapper.\relax }}{16}{figure.caption.22}\protected@file@percent }
\newlabel{fig:01_wrapper}{{\M@TitleReference {2.10}{Create HDL wrapper.\relax }}{16}{Create HDL wrapper.\relax }{figure.caption.22}{}}
\@writefile{lof}{\contentsline {figure}{\numberline {2.11}{\ignorespaces Let Vivado update wrapper.\relax }}{17}{figure.caption.23}\protected@file@percent }
\newlabel{fig:01_wrapper_ok}{{\M@TitleReference {2.11}{Let Vivado update wrapper.\relax }}{17}{Let Vivado update wrapper.\relax }{figure.caption.23}{}}
\@writefile{lof}{\contentsline {figure}{\numberline {2.12}{\ignorespaces Vivado Design Suite. No implementation Results Available Window\relax }}{17}{figure.caption.24}\protected@file@percent }
\newlabel{fig:01_implementation}{{\M@TitleReference {2.12}{Vivado Design Suite. No implementation Results Available Window\relax }}{17}{Vivado Design Suite. No implementation Results Available Window\relax }{figure.caption.24}{}}
\@writefile{lof}{\contentsline {figure}{\numberline {2.13}{\ignorespaces Vivado Design Suite. Launch Runs Window\relax }}{17}{figure.caption.25}\protected@file@percent }
\newlabel{fig:01_launch_window}{{\M@TitleReference {2.13}{Vivado Design Suite. Launch Runs Window\relax }}{17}{Vivado Design Suite. Launch Runs Window\relax }{figure.caption.25}{}}
\@writefile{lof}{\contentsline {figure}{\numberline {2.14}{\ignorespaces Vivado Design Suite. Export Hardware Window\relax }}{18}{figure.caption.26}\protected@file@percent }
\newlabel{fig:01_export_hd}{{\M@TitleReference {2.14}{Vivado Design Suite. Export Hardware Window\relax }}{18}{Vivado Design Suite. Export Hardware Window\relax }{figure.caption.26}{}}
\@writefile{toc}{\contentsline {section}{\numberline {3}Vitis Application Process}{18}{section.2.3}\protected@file@percent }
\@writefile{lof}{\contentsline {figure}{\numberline {2.15}{\ignorespaces Create new application project\relax }}{18}{figure.caption.27}\protected@file@percent }
\newlabel{fig:01_application}{{\M@TitleReference {2.15}{Create new application project\relax }}{18}{Create new application project\relax }{figure.caption.27}{}}
\@writefile{lof}{\contentsline {figure}{\numberline {2.16}{\ignorespaces Create New Platform.\relax }}{19}{figure.caption.28}\protected@file@percent }
\newlabel{fig:01_hw_platform}{{\M@TitleReference {2.16}{Create New Platform.\relax }}{19}{Create New Platform.\relax }{figure.caption.28}{}}
\@writefile{lof}{\contentsline {figure}{\numberline {2.17}{\ignorespaces XSA file.\relax }}{19}{figure.caption.29}\protected@file@percent }
\newlabel{fig:01_xsa}{{\M@TitleReference {2.17}{XSA file.\relax }}{19}{XSA file.\relax }{figure.caption.29}{}}
\@writefile{lof}{\contentsline {figure}{\numberline {2.18}{\ignorespaces Select OS.\relax }}{20}{figure.caption.30}\protected@file@percent }
\newlabel{fig:01_os}{{\M@TitleReference {2.18}{Select OS.\relax }}{20}{Select OS.\relax }{figure.caption.30}{}}
\@writefile{lof}{\contentsline {figure}{\numberline {2.19}{\ignorespaces Select application template.\relax }}{20}{figure.caption.31}\protected@file@percent }
\newlabel{direc}{{\M@TitleReference {2.19}{Select application template.\relax }}{20}{Select application template.\relax }{figure.caption.31}{}}
\@writefile{lot}{\contentsline {table}{\numberline {2.1}{\ignorespaces Libraries - Vitis Application Project\relax }}{21}{table.caption.32}\protected@file@percent }
\newlabel{tab:01_lib}{{\M@TitleReference {2.1}{Libraries - Vitis Application Project\relax }}{21}{Libraries - Vitis Application Project\relax }{table.caption.32}{}}
\@writefile{lof}{\contentsline {figure}{\numberline {2.20}{\ignorespaces Build project.\relax }}{23}{figure.caption.33}\protected@file@percent }
\newlabel{fig:01_build}{{\M@TitleReference {2.20}{Build project.\relax }}{23}{Build project.\relax }{figure.caption.33}{}}
\@writefile{lof}{\contentsline {figure}{\numberline {2.21}{\ignorespaces Launch on Hardware.\relax }}{24}{figure.caption.34}\protected@file@percent }
\newlabel{fig:01_launch_fpga}{{\M@TitleReference {2.21}{Launch on Hardware.\relax }}{24}{Launch on Hardware.\relax }{figure.caption.34}{}}
\@writefile{lof}{\addvspace {10pt}}
\@writefile{lot}{\addvspace {10pt}}
\@writefile{toc}{\contentsline {chapter}{\chapternumberline {3}Lab 02: ARM processor with AXI Lite bus}{25}{chapter.3}\protected@file@percent }
\newlabel{ch:03_arm_axi}{{\M@TitleReference {3}{Lab 02: ARM processor with AXI Lite bus}}{25}{Lab 02: ARM processor with AXI Lite bus}{chapter.3}{}}
\@writefile{toc}{\contentsline {section}{\numberline {1}Introduction}{25}{section.3.1}\protected@file@percent }
\@writefile{toc}{\contentsline {subsection}{\numberline {1.1}Devices and Programs}{26}{subsection.3.1.1}\protected@file@percent }
\@writefile{toc}{\contentsline {subsection}{\numberline {1.2}Summarized Steps}{26}{subsection.3.1.2}\protected@file@percent }
\@writefile{toc}{\contentsline {section}{\numberline {2}Vivado Block Design Process}{27}{section.3.2}\protected@file@percent }
\@writefile{lof}{\contentsline {figure}{\numberline {3.1}{\ignorespaces Vivado Design Suite. Add new elements to the Diagram.\relax }}{27}{figure.caption.35}\protected@file@percent }
\newlabel{fig:02_plus}{{\M@TitleReference {3.1}{Vivado Design Suite. Add new elements to the Diagram.\relax }}{27}{Vivado Design Suite. Add new elements to the Diagram.\relax }{figure.caption.35}{}}
\@writefile{lof}{\contentsline {figure}{\numberline {3.2}{\ignorespaces Vivado Design Suite. Elements Blocks.\relax }}{27}{figure.caption.36}\protected@file@percent }
\newlabel{fig:01_blocks}{{\M@TitleReference {3.2}{Vivado Design Suite. Elements Blocks.\relax }}{27}{Vivado Design Suite. Elements Blocks.\relax }{figure.caption.36}{}}
\@writefile{lof}{\contentsline {figure}{\numberline {3.3}{\ignorespaces Vivado Design Suite. Zynq processing System block - Select master option.\relax }}{28}{figure.caption.37}\protected@file@percent }
\newlabel{fig:02_master}{{\M@TitleReference {3.3}{Vivado Design Suite. Zynq processing System block - Select master option.\relax }}{28}{Vivado Design Suite. Zynq processing System block - Select master option.\relax }{figure.caption.37}{}}
\@writefile{lof}{\contentsline {figure}{\numberline {3.4}{\ignorespaces Vivado Design Suite. Zynq processing System block - select FCLK-CLK0.\relax }}{29}{figure.caption.38}\protected@file@percent }
\newlabel{fig:02_pl}{{\M@TitleReference {3.4}{Vivado Design Suite. Zynq processing System block - select FCLK-CLK0.\relax }}{29}{Vivado Design Suite. Zynq processing System block - select FCLK-CLK0.\relax }{figure.caption.38}{}}
\@writefile{lof}{\contentsline {figure}{\numberline {3.5}{\ignorespaces Vivado Design Suite. AXI interconnect block - select one master interfaces.\relax }}{29}{figure.caption.39}\protected@file@percent }
\newlabel{fig:02_axiblock}{{\M@TitleReference {3.5}{Vivado Design Suite. AXI interconnect block - select one master interfaces.\relax }}{29}{Vivado Design Suite. AXI interconnect block - select one master interfaces.\relax }{figure.caption.39}{}}
\@writefile{lof}{\contentsline {figure}{\numberline {3.6}{\ignorespaces Vivado Design Suite. AXI GPIO 0 block - select AXI GPIO 0 width.\relax }}{30}{figure.caption.40}\protected@file@percent }
\newlabel{fig:02_gpioax0}{{\M@TitleReference {3.6}{Vivado Design Suite. AXI GPIO 0 block - select AXI GPIO 0 width.\relax }}{30}{Vivado Design Suite. AXI GPIO 0 block - select AXI GPIO 0 width.\relax }{figure.caption.40}{}}
\@writefile{lof}{\contentsline {figure}{\numberline {3.7}{\ignorespaces Vivado Design Suite. GPIO AXI block - select AXI GPIO width.\relax }}{30}{figure.caption.41}\protected@file@percent }
\newlabel{fig:02_gpioax1}{{\M@TitleReference {3.7}{Vivado Design Suite. GPIO AXI block - select AXI GPIO width.\relax }}{30}{Vivado Design Suite. GPIO AXI block - select AXI GPIO width.\relax }{figure.caption.41}{}}
\@writefile{lof}{\contentsline {figure}{\numberline {3.8}{\ignorespaces Vivado Design Suite. Uart Lite Configuration.\relax }}{31}{figure.caption.42}\protected@file@percent }
\newlabel{fig:02_uartlite}{{\M@TitleReference {3.8}{Vivado Design Suite. Uart Lite Configuration.\relax }}{31}{Vivado Design Suite. Uart Lite Configuration.\relax }{figure.caption.42}{}}
\@writefile{lof}{\contentsline {figure}{\numberline {3.9}{\ignorespaces Vivado Design Suite. Generate Connections Blocks in the Design Block.\relax }}{31}{figure.caption.43}\protected@file@percent }
\newlabel{fig:02_r_automation}{{\M@TitleReference {3.9}{Vivado Design Suite. Generate Connections Blocks in the Design Block.\relax }}{31}{Vivado Design Suite. Generate Connections Blocks in the Design Block.\relax }{figure.caption.43}{}}
\@writefile{lof}{\contentsline {figure}{\numberline {3.10}{\ignorespaces Vivado Design Suite. Block Design with Hardcore processor, and GPIO and Uart peripheral interconnected with AXI Bus - Zybo Z7.\relax }}{32}{figure.caption.44}\protected@file@percent }
\newlabel{fig:02_automation}{{\M@TitleReference {3.10}{Vivado Design Suite. Block Design with Hardcore processor, and GPIO and Uart peripheral interconnected with AXI Bus - Zybo Z7.\relax }}{32}{Vivado Design Suite. Block Design with Hardcore processor, and GPIO and Uart peripheral interconnected with AXI Bus - Zybo Z7.\relax }{figure.caption.44}{}}
\@writefile{lof}{\contentsline {figure}{\numberline {3.11}{\ignorespaces Vivado Design Suite. Generate Wrapper.\relax }}{32}{figure.caption.45}\protected@file@percent }
\newlabel{fig:02_wrapper}{{\M@TitleReference {3.11}{Vivado Design Suite. Generate Wrapper.\relax }}{32}{Vivado Design Suite. Generate Wrapper.\relax }{figure.caption.45}{}}
\@writefile{lof}{\contentsline {figure}{\numberline {3.12}{\ignorespaces Vivado Design Suite. Add Source Window - Add Constraint File.\relax }}{33}{figure.caption.46}\protected@file@percent }
\newlabel{fig:02_source}{{\M@TitleReference {3.12}{Vivado Design Suite. Add Source Window - Add Constraint File.\relax }}{33}{Vivado Design Suite. Add Source Window - Add Constraint File.\relax }{figure.caption.46}{}}
\@writefile{lof}{\contentsline {figure}{\numberline {3.13}{\ignorespaces Vivado Design Suite. Wrapper file\relax }}{33}{figure.caption.47}\protected@file@percent }
\newlabel{fig:02_xdc_wrapper}{{\M@TitleReference {3.13}{Vivado Design Suite. Wrapper file\relax }}{33}{Vivado Design Suite. Wrapper file\relax }{figure.caption.47}{}}
\@writefile{lof}{\contentsline {figure}{\numberline {3.14}{\ignorespaces Vivado Design Suite. XDC File\relax }}{34}{figure.caption.48}\protected@file@percent }
\newlabel{fig:02_xdc_file}{{\M@TitleReference {3.14}{Vivado Design Suite. XDC File\relax }}{34}{Vivado Design Suite. XDC File\relax }{figure.caption.48}{}}
\@writefile{lof}{\contentsline {figure}{\numberline {3.15}{\ignorespaces Vivado Design Suite. No implementation Results Available Window\relax }}{34}{figure.caption.49}\protected@file@percent }
\newlabel{fig:02_implementation}{{\M@TitleReference {3.15}{Vivado Design Suite. No implementation Results Available Window\relax }}{34}{Vivado Design Suite. No implementation Results Available Window\relax }{figure.caption.49}{}}
\@writefile{lof}{\contentsline {figure}{\numberline {3.16}{\ignorespaces Vivado Design Suite. Launch Runs Window\relax }}{34}{figure.caption.50}\protected@file@percent }
\newlabel{fig:02_launch_window}{{\M@TitleReference {3.16}{Vivado Design Suite. Launch Runs Window\relax }}{34}{Vivado Design Suite. Launch Runs Window\relax }{figure.caption.50}{}}
\@writefile{lof}{\contentsline {figure}{\numberline {3.17}{\ignorespaces Vivado Design Suite. Device Implementation.\relax }}{35}{figure.caption.51}\protected@file@percent }
\newlabel{fig:02_resources}{{\M@TitleReference {3.17}{Vivado Design Suite. Device Implementation.\relax }}{35}{Vivado Design Suite. Device Implementation.\relax }{figure.caption.51}{}}
\@writefile{lof}{\contentsline {figure}{\numberline {3.18}{\ignorespaces Vivado Design Suite. Export Hardware Window\relax }}{35}{figure.caption.52}\protected@file@percent }
\newlabel{fig:02_export_hd}{{\M@TitleReference {3.18}{Vivado Design Suite. Export Hardware Window\relax }}{35}{Vivado Design Suite. Export Hardware Window\relax }{figure.caption.52}{}}
\@writefile{toc}{\contentsline {section}{\numberline {3}Vitis Application Process}{35}{section.3.3}\protected@file@percent }
\@writefile{lof}{\contentsline {figure}{\numberline {3.19}{\ignorespaces Vitis Software Platform. Import Hardware - New application project Window\relax }}{36}{figure.caption.53}\protected@file@percent }
\newlabel{fig:02_import_hd}{{\M@TitleReference {3.19}{Vitis Software Platform. Import Hardware - New application project Window\relax }}{36}{Vitis Software Platform. Import Hardware - New application project Window\relax }{figure.caption.53}{}}
\@writefile{lof}{\contentsline {figure}{\numberline {3.20}{\ignorespaces Vitis Software Platform. Select OS - New application project Window\relax }}{37}{figure.caption.54}\protected@file@percent }
\newlabel{fig:02_os}{{\M@TitleReference {3.20}{Vitis Software Platform. Select OS - New application project Window\relax }}{37}{Vitis Software Platform. Select OS - New application project Window\relax }{figure.caption.54}{}}
\@writefile{lot}{\contentsline {table}{\numberline {3.1}{\ignorespaces Libraries - Vitis Application Project\relax }}{37}{table.caption.55}\protected@file@percent }
\newlabel{tab:02_lib}{{\M@TitleReference {3.1}{Libraries - Vitis Application Project\relax }}{37}{Libraries - Vitis Application Project\relax }{table.caption.55}{}}
\@writefile{lof}{\contentsline {figure}{\numberline {3.21}{\ignorespaces Vitis Software Platform. Launch on Hardware.\relax }}{38}{figure.caption.56}\protected@file@percent }
\newlabel{fig:02_launch_fpga}{{\M@TitleReference {3.21}{Vitis Software Platform. Launch on Hardware.\relax }}{38}{Vitis Software Platform. Launch on Hardware.\relax }{figure.caption.56}{}}
\@writefile{lof}{\addvspace {10pt}}
\@writefile{lot}{\addvspace {10pt}}
\@writefile{toc}{\contentsline {chapter}{\chapternumberline {4}Lab 02: MicroBlaze with AXI Lite bus}{39}{chapter.4}\protected@file@percent }
\newlabel{ch:03_arm_axi}{{\M@TitleReference {4}{Lab 02: MicroBlaze with AXI Lite bus}}{39}{Lab 02: MicroBlaze with AXI Lite bus}{chapter.4}{}}
\@writefile{toc}{\contentsline {section}{\numberline {1}Introduction}{39}{section.4.1}\protected@file@percent }
\@writefile{toc}{\contentsline {subsection}{\numberline {1.1}Devices and Programs}{40}{subsection.4.1.1}\protected@file@percent }
\@writefile{toc}{\contentsline {subsection}{\numberline {1.2}Summarized Steps}{40}{subsection.4.1.2}\protected@file@percent }
\@writefile{toc}{\contentsline {section}{\numberline {2}Vivado Block Design Process}{41}{section.4.2}\protected@file@percent }
\@writefile{lof}{\contentsline {figure}{\numberline {4.1}{\ignorespaces NONE.\relax }}{41}{figure.caption.57}\protected@file@percent }
\newlabel{fig:02_plus}{{\M@TitleReference {4.1}{NONE.\relax }}{41}{NONE.\relax }{figure.caption.57}{}}
\@writefile{lof}{\contentsline {figure}{\numberline {4.2}{\ignorespaces NONE.\relax }}{42}{figure.caption.58}\protected@file@percent }
\newlabel{fig:02_plus}{{\M@TitleReference {4.2}{NONE.\relax }}{42}{NONE.\relax }{figure.caption.58}{}}
\@writefile{lof}{\contentsline {figure}{\numberline {4.3}{\ignorespaces NONE.\relax }}{42}{figure.caption.59}\protected@file@percent }
\newlabel{fig:02_plus}{{\M@TitleReference {4.3}{NONE.\relax }}{42}{NONE.\relax }{figure.caption.59}{}}
\@writefile{lof}{\contentsline {figure}{\numberline {4.4}{\ignorespaces NONE.\relax }}{43}{figure.caption.60}\protected@file@percent }
\newlabel{fig:02_plus}{{\M@TitleReference {4.4}{NONE.\relax }}{43}{NONE.\relax }{figure.caption.60}{}}
\@writefile{lof}{\contentsline {figure}{\numberline {4.5}{\ignorespaces NONE.\relax }}{43}{figure.caption.61}\protected@file@percent }
\newlabel{fig:02_plus}{{\M@TitleReference {4.5}{NONE.\relax }}{43}{NONE.\relax }{figure.caption.61}{}}
\@writefile{lof}{\contentsline {figure}{\numberline {4.6}{\ignorespaces NONE.\relax }}{43}{figure.caption.62}\protected@file@percent }
\newlabel{fig:02_plus}{{\M@TitleReference {4.6}{NONE.\relax }}{43}{NONE.\relax }{figure.caption.62}{}}
\@writefile{lof}{\contentsline {figure}{\numberline {4.7}{\ignorespaces NONE.\relax }}{44}{figure.caption.63}\protected@file@percent }
\newlabel{fig:02_plus}{{\M@TitleReference {4.7}{NONE.\relax }}{44}{NONE.\relax }{figure.caption.63}{}}
\@writefile{lof}{\contentsline {figure}{\numberline {4.8}{\ignorespaces NONE.\relax }}{44}{figure.caption.64}\protected@file@percent }
\newlabel{fig:02_plus}{{\M@TitleReference {4.8}{NONE.\relax }}{44}{NONE.\relax }{figure.caption.64}{}}
\@writefile{lof}{\contentsline {figure}{\numberline {4.9}{\ignorespaces NONE.\relax }}{45}{figure.caption.65}\protected@file@percent }
\newlabel{fig:02_plus}{{\M@TitleReference {4.9}{NONE.\relax }}{45}{NONE.\relax }{figure.caption.65}{}}
\@writefile{lof}{\contentsline {figure}{\numberline {4.10}{\ignorespaces NONE.\relax }}{45}{figure.caption.66}\protected@file@percent }
\newlabel{fig:02_plus}{{\M@TitleReference {4.10}{NONE.\relax }}{45}{NONE.\relax }{figure.caption.66}{}}
\@writefile{lof}{\contentsline {figure}{\numberline {4.11}{\ignorespaces NONE.\relax }}{46}{figure.caption.67}\protected@file@percent }
\newlabel{fig:02_plus}{{\M@TitleReference {4.11}{NONE.\relax }}{46}{NONE.\relax }{figure.caption.67}{}}
\@writefile{lof}{\contentsline {figure}{\numberline {4.12}{\ignorespaces NONE.\relax }}{46}{figure.caption.68}\protected@file@percent }
\newlabel{fig:02_plus}{{\M@TitleReference {4.12}{NONE.\relax }}{46}{NONE.\relax }{figure.caption.68}{}}
\@writefile{lof}{\contentsline {figure}{\numberline {4.13}{\ignorespaces NONE.\relax }}{47}{figure.caption.69}\protected@file@percent }
\newlabel{fig:02_plus}{{\M@TitleReference {4.13}{NONE.\relax }}{47}{NONE.\relax }{figure.caption.69}{}}
\@writefile{lof}{\contentsline {figure}{\numberline {4.14}{\ignorespaces NONE.\relax }}{47}{figure.caption.70}\protected@file@percent }
\newlabel{fig:02_plus}{{\M@TitleReference {4.14}{NONE.\relax }}{47}{NONE.\relax }{figure.caption.70}{}}
\@writefile{lof}{\contentsline {figure}{\numberline {4.15}{\ignorespaces NONE.\relax }}{48}{figure.caption.71}\protected@file@percent }
\newlabel{fig:02_plus}{{\M@TitleReference {4.15}{NONE.\relax }}{48}{NONE.\relax }{figure.caption.71}{}}
\@writefile{lof}{\contentsline {figure}{\numberline {4.16}{\ignorespaces NONE.\relax }}{48}{figure.caption.72}\protected@file@percent }
\newlabel{fig:02_plus}{{\M@TitleReference {4.16}{NONE.\relax }}{48}{NONE.\relax }{figure.caption.72}{}}
\@writefile{lof}{\contentsline {figure}{\numberline {4.17}{\ignorespaces NONE.\relax }}{49}{figure.caption.73}\protected@file@percent }
\newlabel{fig:02_plus}{{\M@TitleReference {4.17}{NONE.\relax }}{49}{NONE.\relax }{figure.caption.73}{}}
\@writefile{lof}{\contentsline {figure}{\numberline {4.18}{\ignorespaces NONE.\relax }}{49}{figure.caption.74}\protected@file@percent }
\newlabel{fig:02_plus}{{\M@TitleReference {4.18}{NONE.\relax }}{49}{NONE.\relax }{figure.caption.74}{}}
\@writefile{lof}{\contentsline {figure}{\numberline {4.19}{\ignorespaces NONE.\relax }}{50}{figure.caption.75}\protected@file@percent }
\newlabel{fig:02_plus}{{\M@TitleReference {4.19}{NONE.\relax }}{50}{NONE.\relax }{figure.caption.75}{}}
\@writefile{lof}{\contentsline {figure}{\numberline {4.20}{\ignorespaces NONE.\relax }}{50}{figure.caption.76}\protected@file@percent }
\newlabel{fig:02_plus}{{\M@TitleReference {4.20}{NONE.\relax }}{50}{NONE.\relax }{figure.caption.76}{}}
\@writefile{lof}{\contentsline {figure}{\numberline {4.21}{\ignorespaces NONE.\relax }}{51}{figure.caption.77}\protected@file@percent }
\newlabel{fig:02_plus}{{\M@TitleReference {4.21}{NONE.\relax }}{51}{NONE.\relax }{figure.caption.77}{}}
\@writefile{lof}{\contentsline {figure}{\numberline {4.22}{\ignorespaces NONE.\relax }}{51}{figure.caption.78}\protected@file@percent }
\newlabel{fig:02_plus}{{\M@TitleReference {4.22}{NONE.\relax }}{51}{NONE.\relax }{figure.caption.78}{}}
\bibcite{fpga2017}{1}
\bibcite{nexys4}{2}
\bibcite{clb7s}{3}
\@writefile{toc}{\contentsline {chapter}{Bibliography}{54}{chapter*.79}\protected@file@percent }
\memsetcounter{lastsheet}{60}
\memsetcounter{lastpage}{54}
