<?xml version="1.0" encoding="ASCII"?>
<sdkproject:SdkProject xmi:version="2.0" xmlns:xmi="http://www.omg.org/XMI" xmlns:xsi="http://www.w3.org/2001/XMLSchema-instance" xmlns:sdkproject="http://www.xilinx.com/sdkproject" name="arm_axi" location="/home/dorfell/Documents/Vitis_2019.2/socs_design/01_arm_axi/arm_axi" platform="/home/dorfell/Documents/Vitis_2019.2/socs_design/01_arm_axi/arm_axi_bd_wrapper/export/arm_axi_bd_wrapper/arm_axi_bd_wrapper.xpfm" platformUID="xilinx:::0.0(custom)" systemProject="arm_axi_system" sysConfig="arm_axi_bd_wrapper" runtime="cpp" cpu="standalone_domain" cpuInstance="ps7_cortexa9_0" os="standalone" mssSignature="c1090f7cc07a3496e557b962865866f2">
  <configuration name="Debug" id="xilinx.gnu.armv7.exe.debug.714154861">
    <configBuildOptions xsi:type="sdkproject:SdkOptions"/>
    <lastBuildOptions xsi:type="sdkproject:SdkOptions"/>
  </configuration>
  <configuration name="Release" id="xilinx.gnu.armv7.exe.release.114892587" dirty="true">
    <configBuildOptions xsi:type="sdkproject:SdkOptions"/>
  </configuration>
  <template appTemplateName="hello_world"/>
</sdkproject:SdkProject>
